<define-tag pagetitle>DLA-2952-1 openssl</define-tag>
<define-tag report_date>2022-03-17</define-tag>
<define-tag secrefs>CVE-2019-1551 CVE-2022-0778</define-tag>
<define-tag packages>openssl</define-tag>
<define-tag isvulnerable>yes</define-tag>
<define-tag fixed>yes</define-tag>
<define-tag fixed-section>no</define-tag>

#use wml::debian::security

