<define-tag pagetitle>DLA-3121-1 firefox-esr</define-tag>
<define-tag report_date>2022-09-26</define-tag>
<define-tag secrefs>CVE-2022-40956 CVE-2022-40957 CVE-2022-40958 CVE-2022-40959 CVE-2022-40960 CVE-2022-40962</define-tag>
<define-tag packages>firefox-esr</define-tag>
<define-tag isvulnerable>yes</define-tag>
<define-tag fixed>yes</define-tag>
<define-tag fixed-section>no</define-tag>

#use wml::debian::security

