<define-tag pagetitle>DLA-3034-1 haproxy</define-tag>
<define-tag report_date>2022-5-30</define-tag>
<define-tag secrefs>CVE-2018-20102 CVE-2018-20103 CVE-2019-18277 Bug#916308 Bug#916307</define-tag>
<define-tag packages>haproxy</define-tag>
<define-tag isvulnerable>yes</define-tag>
<define-tag fixed>yes</define-tag>
<define-tag fixed-section>no</define-tag>

#use wml::debian::security

