<define-tag pagetitle>DSA-4878-1 pygments</define-tag>
<define-tag report_date>2021-3-27</define-tag>
<define-tag secrefs>CVE-2021-27291 Bug#985574</define-tag>
<define-tag packages>pygments</define-tag>
<define-tag isvulnerable>yes</define-tag>
<define-tag fixed>yes</define-tag>
<define-tag fixed-section>no</define-tag>

#use wml::debian::security



</dl>
