<define-tag pagetitle>DLA-2775-1 plib</define-tag>
<define-tag report_date>2021-10-02</define-tag>
<define-tag secrefs>CVE-2021-38714</define-tag>
<define-tag packages>plib</define-tag>
<define-tag isvulnerable>yes</define-tag>
<define-tag fixed>yes</define-tag>
<define-tag fixed-section>no</define-tag>

#use wml::debian::security

