<define-tag pagetitle>DLA-2361-1 libx11</define-tag>
<define-tag report_date>2020-09-01</define-tag>
<define-tag secrefs>CVE-2020-14363 Bug#969008</define-tag>
<define-tag packages>libx11</define-tag>
<define-tag isvulnerable>yes</define-tag>
<define-tag fixed>yes</define-tag>
<define-tag fixed-section>no</define-tag>

#use wml::debian::security

