<define-tag pagetitle>DLA-2395-1 libvirt</define-tag>
<define-tag report_date>2020-10-02</define-tag>
<define-tag secrefs>CVE-2020-25637 Bug#971555</define-tag>
<define-tag packages>libvirt</define-tag>
<define-tag isvulnerable>yes</define-tag>
<define-tag fixed>yes</define-tag>
<define-tag fixed-section>no</define-tag>

#use wml::debian::security

