<define-tag pagetitle>DLA-2404-1 eclipse-wtp</define-tag>
<define-tag report_date>2020-10-10</define-tag>
<define-tag secrefs>CVE-2019-17637</define-tag>
<define-tag packages>eclipse-wtp</define-tag>
<define-tag isvulnerable>yes</define-tag>
<define-tag fixed>yes</define-tag>
<define-tag fixed-section>no</define-tag>

#use wml::debian::security

