<define-tag pagetitle>DLA-1400-2 tomcat7</define-tag>
<define-tag report_date>2018-7-1</define-tag>
<define-tag secrefs>Bug#902670</define-tag>
<define-tag packages>tomcat7</define-tag>
<define-tag isvulnerable>yes</define-tag>
<define-tag fixed>yes</define-tag>
<define-tag fixed-section>no</define-tag>

#use wml::debian::security

