<define-tag pagetitle>DSA-5079-1 chromium</define-tag>
<define-tag report_date>2022-2-17</define-tag>
<define-tag secrefs>CVE-2022-0603 CVE-2022-0604 CVE-2022-0605 CVE-2022-0606 CVE-2022-0607 CVE-2022-0608 CVE-2022-0609 CVE-2022-0610 Bug#954824 Bug#970571 Bug#1005230 Bug#1005466</define-tag>
<define-tag packages>chromium</define-tag>
<define-tag isvulnerable>yes</define-tag>
<define-tag fixed>yes</define-tag>
<define-tag fixed-section>no</define-tag>

#use wml::debian::security



</dl>
