<define-tag pagetitle>DSA-5228-1 gdk-pixbuf</define-tag>
<define-tag report_date>2022-9-11</define-tag>
<define-tag secrefs>CVE-2021-44648 CVE-2021-46829 Bug#1014600</define-tag>
<define-tag packages>gdk-pixbuf</define-tag>
<define-tag isvulnerable>yes</define-tag>
<define-tag fixed>yes</define-tag>
<define-tag fixed-section>no</define-tag>

#use wml::debian::security



</dl>
