<define-tag pagetitle>DLA-1627-1 qtbase-opensource-src</define-tag>
<define-tag report_date>2019-1-3</define-tag>
<define-tag secrefs>CVE-2018-15518 CVE-2018-19870 CVE-2018-19873</define-tag>
<define-tag packages>qtbase-opensource-src</define-tag>
<define-tag isvulnerable>yes</define-tag>
<define-tag fixed>yes</define-tag>
<define-tag fixed-section>no</define-tag>

#use wml::debian::security

