<define-tag pagetitle>DLA-2009-1 tiff</define-tag>
<define-tag report_date>2019-11-26</define-tag>
<define-tag secrefs>CVE-2017-17095 CVE-2018-12900 CVE-2018-18661 CVE-2019-6128 CVE-2019-17546 CVE-2017-17095</define-tag>
<define-tag packages>tiff</define-tag>
<define-tag isvulnerable>yes</define-tag>
<define-tag fixed>yes</define-tag>
<define-tag fixed-section>no</define-tag>

#use wml::debian::security

