<define-tag pagetitle>DLA-1668-1 libarchive</define-tag>
<define-tag report_date>2019-2-7</define-tag>
<define-tag secrefs>CVE-2019-1000019 CVE-2019-1000020</define-tag>
<define-tag packages>libarchive</define-tag>
<define-tag isvulnerable>yes</define-tag>
<define-tag fixed>yes</define-tag>
<define-tag fixed-section>no</define-tag>

#use wml::debian::security

