<define-tag pagetitle>DLA-577-1 redis</define-tag>
<define-tag report_date>2016-7-30</define-tag>
<define-tag secrefs>CVE-2013-7458 Bug#832460</define-tag>
<define-tag packages>redis</define-tag>
<define-tag isvulnerable>yes</define-tag>
<define-tag fixed>yes</define-tag>
<define-tag fixed-section>no</define-tag>

#use wml::debian::security

