<define-tag pagetitle>DLA-544-1 tcpreplay</define-tag>
<define-tag report_date>2016-7-7</define-tag>
<define-tag secrefs>CVE-2016-6160 Bug#829350</define-tag>
<define-tag packages>tcpreplay</define-tag>
<define-tag isvulnerable>yes</define-tag>
<define-tag fixed>yes</define-tag>
<define-tag fixed-section>no</define-tag>

#use wml::debian::security

